GEOAREA,PLAID,SITENAME,EQUIPMENT,DISMANTLE
VIS,VIS914,83ASNJOSELEY,NR26MM,L23
VIS,VIS3228,ABACHASBULLOBOH,NR26MM,L23
VIS,VIS104,ABACUS,NR26MM,L23
VIS,vis746,ABUANA,NR26MM,L23
VIS,VIS3622,ABUCAYANBLAMBNCEB,NR26MM,L23
VIS,vis238,ABUCAYNORCALAPEBOH,NR26MM,L23
VIS,VIS2046,ABUGON,NR26MM,L23
VIS,VIS2765,ABUNOPAJACEB,NR26MM,L23
VIS,VIS426,ABUYOG,NR26MM,L23
