GEOAREA,SITENAME,PLAID,EQUIPMENT,DISMANTLE
NCR,100KTOWERQC,NCR5834,"L23, L26",L9
NCR,100WESTMKTNCRID,NCR7603,"L23, L26",L9
VIS,1016RESCEB,VIS3016,"L23, L26",L9
NCR,101PLAZANTPLORZL,SL3556,"L23, L26",L9
SLZ,104BGYCLMPNGDANGCVT,SL5240,"L23, L26",L9
MIN,10IDMAWABCVLYCOW,MIN3205,"L23, L26",L9
