GEOAREA,SITENAME,PLAID,EQUIPMENT,DISMANTLE
VIS,BETHEL,VIS901,RRU5254,
VIS,JUGAN,VIS9,RRU5254,
VIS,SLORD2,VIS1907,RRU5254,
VIS,JAENA2,VIS1922,RRU5254,
VIS,DINGLE,VIS574,RRU5254,
VIS,KAMPU2,VIS81564,RRU5254,
VIS,BLBAGESTNOR,VIS81590,RRU5254,
VIS,CALAJOANMINGLACEB,VIS3616,RRU5254,
VIS,CATARLILOANCEB,VIS3962,RRU5254,
VIS,UBAY,VIS284,RRU5254,
VIS,UBAY2,VIS276,RRU5254,
VIS,GATUS,VIS889,RRU5254,
VIS,SOOC,VIS558,RRU5254,
VIS,VIRGENANDABOH,VIS2878,RRU5254,
VIS,TUBURANDANAOCEB,VIS3603,RRU5254,
VIS,SIATON,VIS841,RRU5254,
VIS,BALAM2,VIS3,RRU5254,
VIS,SAKSAK,VIS89,RRU5254,
VIS,NANGK3,VIS66,RRU5254,
VIS,UMAPADMNDAUE,VIS3351,RRU5254,
