GEOAREA,PLAID,SITENAME,EQUIPMENT,DISMANTLE
NCR,NCR5834,100KTOWERQC,L23,L26
NCR,NCR7603,100WESTMKTNCRID,L23,L26
VIS,VIS3016,1016RESCEB,L23,L26
NCR,SL3556,101PLAZANTPLORZL,L23,L26
SLZ,SL5240,104BGYCLMPNGDANGCVT,L23,L26
MIN,MIN3205,10IDMAWABCVLYCOW,L23,L26
NCR,NCR7032,10WESTMCKNLID,L23,L26
NCR,NCR2925,1188MALL,L23,L26
NCR,NCR2656,11AVE,L23,L26
MIN,MIN1979,12STNAZARETH,L23,L26
NCR,NCR5280,12THAVESOCOROQCNCREM,L23,L26
