GEOAREA,SITENAME,PLAID,EQUIPMENT,DISMANTLE
NCR,100KTOWERQC,NCR5834,L26MM,L26
NCR,100WESTMKTNCRID,NCR7603,L26MM,L26
VIS,1016RESCEB,VIS3016,L26MM,L26
NCR,101PLAZANTPLORZL,SL3556,L26MM,L26
SLZ,104BGYCLMPNGDANGCVT,SL5240,L26MM,L26
MIN,10IDMAWABCVLYCOW,MIN3205,L26MM,L26
NCR,10WESTMCKNLID,NCR7032,L26MM,L26
NCR,1188MALL,NCR2925,L26MM,L26
NCR,11AVE,NCR2656,L26MM,L26
MIN,12STNAZARETH,MIN1979,L26MM,L26
NCR,12THAVESOCOROQCNCREM,NCR5280,L26MM,L26
